<svg xmlns="http://www.w3.org/2000/svg" viewBox="0 0 39 46">
  <title>add-card</title>
  <g>
    <path d="M26.3,33H8.82a2,2,0,0,0,0,4H26.18A1.89,1.89,0,0,0,28,35a1.81,1.81,0,0,0-1.7-2ZM7,27a1.89,1.89,0,0,0,1.82,2H26.18a2,2,0,0,0,0-4H8.82A1.89,1.89,0,0,0,7,27Z"/>
    <path d="M35.05,42.1H3.94V4H35.05ZM36,0H3A2.87,2.87,0,0,0,0,3V43a3,3,0,0,0,3,3H36a3,3,0,0,0,3-3.14V3a3,3,0,0,0-3-3Z"/>
    <path d="M9,16h2v2a2,2,0,0,0,4,0V16h2a2,2,0,0,0,0-4H15V10a2,2,0,1,0-4,0v2H9a2,2,0,0,0,0,4Z"/>
  </g>
</svg>
